{
	"info": {
		"_postman_id": "c401a7df-def7-4479-a352-6966748598bc",
		"name": "Job boards",
		"schema": "https://schema.getpostman.com/json/collection/v2.1.0/collection.json"
	},
	"item": [
		{
			"name": "Create Job post",
			"request": {
				"method": "POST",
				"header": [
					{
						"key": "Authorization",
						"value": "Bearer eyJhbGciOiJIUzUxMiJ9.eyJzdWIiOiJyZWMiLCJpYXQiOjE2MzQwNjk2MzYsImV4cCI6MTYzNDE1NjAzNn0.0AlEe5VcURjeVrAwdXROCf-1lX8KDyzxpiXnu5DAjltk1MQtOxm83hiVqsrzCsMd6eC-TFiclG79lvS4MCf4rQ",
						"type": "text"
					}
				],
				"body": {
					"mode": "raw",
					"raw": "{\n    \"title\": \"few\",\n    \"description\": \"few\",\n    \"status\": true\n}",
					"options": {
						"raw": {
							"language": "json"
						}
					}
				},
				"url": {
					"raw": "http://localhost:8080/api/job/save",
					"protocol": "http",
					"host": [
						"localhost"
					],
					"port": "8080",
					"path": [
						"api",
						"job",
						"save"
					]
				}
			},
			"response": []
		},
		{
			"name": "Update Job status",
			"request": {
				"method": "POST",
				"header": [
					{
						"key": "Authorization",
						"value": "Bearer eyJhbGciOiJIUzUxMiJ9.eyJzdWIiOiJyZWMiLCJpYXQiOjE2MzQwNjk2MzYsImV4cCI6MTYzNDE1NjAzNn0.0AlEe5VcURjeVrAwdXROCf-1lX8KDyzxpiXnu5DAjltk1MQtOxm83hiVqsrzCsMd6eC-TFiclG79lvS4MCf4rQ",
						"type": "text"
					}
				],
				"body": {
					"mode": "raw",
					"raw": "true",
					"options": {
						"raw": {
							"language": "json"
						}
					}
				},
				"url": {
					"raw": "http://localhost:8080/api/job/updateStatus/6",
					"protocol": "http",
					"host": [
						"localhost"
					],
					"port": "8080",
					"path": [
						"api",
						"job",
						"updateStatus",
						"6"
					]
				}
			},
			"response": []
		},
		{
			"name": "Sign up",
			"request": {
				"method": "POST",
				"header": [],
				"body": {
					"mode": "raw",
					"raw": "{\n    \"username\" : \"user\",\n    \"email\": \"user@gmail.ecom\",\n    \"password\" : \"1111\",\n    \"role\" : \"recruiter\"\n}",
					"options": {
						"raw": {
							"language": "json"
						}
					}
				},
				"url": {
					"raw": "http://localhost:8080/api/auth/signup",
					"protocol": "http",
					"host": [
						"localhost"
					],
					"port": "8080",
					"path": [
						"api",
						"auth",
						"signup"
					]
				}
			},
			"response": []
		},
		{
			"name": "Sign in",
			"request": {
				"method": "POST",
				"header": [],
				"body": {
					"mode": "raw",
					"raw": "{\n    \"username\" : \"user\",\n    \"password\" : \"1111\"\n}",
					"options": {
						"raw": {
							"language": "json"
						}
					}
				},
				"url": {
					"raw": "http://localhost:8080/api/auth/signin",
					"protocol": "http",
					"host": [
						"localhost"
					],
					"port": "8080",
					"path": [
						"api",
						"auth",
						"signin"
					]
				}
			},
			"response": []
		},
		{
			"name": "List Job posts",
			"request": {
				"method": "GET",
				"header": [
					{
						"key": "Authorization",
						"value": "Bearer eyJhbGciOiJIUzUxMiJ9.eyJzdWIiOiJyZWMiLCJpYXQiOjE2MzQwNjk2MzYsImV4cCI6MTYzNDE1NjAzNn0.0AlEe5VcURjeVrAwdXROCf-1lX8KDyzxpiXnu5DAjltk1MQtOxm83hiVqsrzCsMd6eC-TFiclG79lvS4MCf4rQ",
						"type": "text"
					}
				],
				"url": {
					"raw": "http://localhost:8080/api/job/list?page=0&size=10&status=false",
					"protocol": "http",
					"host": [
						"localhost"
					],
					"port": "8080",
					"path": [
						"api",
						"job",
						"list"
					],
					"query": [
						{
							"key": "page",
							"value": "0"
						},
						{
							"key": "size",
							"value": "10"
						},
						{
							"key": "status",
							"value": "false"
						}
					]
				}
			},
			"response": []
		},
		{
			"name": "Apply to job",
			"request": {
				"method": "POST",
				"header": [
					{
						"key": "Authorization",
						"value": "Bearer eyJhbGciOiJIUzUxMiJ9.eyJzdWIiOiJyZWMiLCJpYXQiOjE2MzQwNjk2MzYsImV4cCI6MTYzNDE1NjAzNn0.0AlEe5VcURjeVrAwdXROCf-1lX8KDyzxpiXnu5DAjltk1MQtOxm83hiVqsrzCsMd6eC-TFiclG79lvS4MCf4rQ",
						"type": "text"
					}
				],
				"url": {
					"raw": "http://localhost:8080/api/job-application/apply/6",
					"protocol": "http",
					"host": [
						"localhost"
					],
					"port": "8080",
					"path": [
						"api",
						"job-application",
						"apply",
						"6"
					]
				}
			},
			"response": []
		},
		{
			"name": "List job applications",
			"request": {
				"method": "GET",
				"header": [
					{
						"key": "Authorization",
						"value": "Bearer eyJhbGciOiJIUzUxMiJ9.eyJzdWIiOiJyZWMiLCJpYXQiOjE2MzQwNjk2MzYsImV4cCI6MTYzNDE1NjAzNn0.0AlEe5VcURjeVrAwdXROCf-1lX8KDyzxpiXnu5DAjltk1MQtOxm83hiVqsrzCsMd6eC-TFiclG79lvS4MCf4rQ",
						"type": "text"
					}
				],
				"url": {
					"raw": "http://localhost:8080/api/job-application/list/6?page=0&size=10",
					"protocol": "http",
					"host": [
						"localhost"
					],
					"port": "8080",
					"path": [
						"api",
						"job-application",
						"list",
						"6"
					],
					"query": [
						{
							"key": "page",
							"value": "0"
						},
						{
							"key": "size",
							"value": "10"
						}
					]
				}
			},
			"response": []
		},
		{
			"name": "Get job application",
			"request": {
				"method": "GET",
				"header": [
					{
						"key": "Authorization",
						"value": "Bearer eyJhbGciOiJIUzUxMiJ9.eyJzdWIiOiJyZWMiLCJpYXQiOjE2MzQwNjk2MzYsImV4cCI6MTYzNDE1NjAzNn0.0AlEe5VcURjeVrAwdXROCf-1lX8KDyzxpiXnu5DAjltk1MQtOxm83hiVqsrzCsMd6eC-TFiclG79lvS4MCf4rQ",
						"type": "text"
					}
				],
				"url": {
					"raw": "http://localhost:8080/api/job-application/application/3",
					"protocol": "http",
					"host": [
						"localhost"
					],
					"port": "8080",
					"path": [
						"api",
						"job-application",
						"application",
						"3"
					]
				}
			},
			"response": []
		}
	]
}